<?xml version="1.0" encoding="utf-8"?>
<!-- Generator: Adobe Illustrator 23.0.1, SVG Export Plug-In . SVG Version: 6.00 Build 0)  -->
<svg version="1.1" id="Layer_1" xmlns="http://www.w3.org/2000/svg" xmlns:xlink="http://www.w3.org/1999/xlink" x="0px" y="0px"
	 viewBox="0 0 1920 1080" style="enable-background:new 0 0 1920 1080;" xml:space="preserve">
<style type="text/css">
	.st0{fill:none;stroke:#4270C9;stroke-width:44;stroke-miterlimit:10;}
</style>
<path class="st0" d="M234.6,241c55.6,5.3,110.2,4.3,191.9,58.2c163.4,108,42.5,306.7,187,443.4c114.2,108,300.4,106,388.8,105.1
	c98.5-1,258.2-3.8,352.1-98.5c137.6-138.8,2.9-343.5,139.4-456.6c64.2-53.2,125.1-58,189.6-55"/>
<path class="st0" d="M566.3,304.4c94.9,36.3,249.9,80.2,441.9,66.3c154.5-11.2,279-55.9,363-94.9"/>
<path class="st0" d="M853.5,289.6c24-48.1,68-77.3,114-75.4c58.3,2.4,91.5,53.6,95.7,60.3"/>
</svg>
